^C:\MY PROJECTS\C++\CONSOLEAPPLICATION3\DEBUG\CONSOLEAPPLICATION3.OBJ
C:\MY PROJECTS\C++\CONSOLEAPPLICATION3\DEBUG\CONSOLEAPPLICATION3.EXE
C:\MY PROJECTS\C++\CONSOLEAPPLICATION3\DEBUG\CONSOLEAPPLICATION3.ILK
C:\MY PROJECTS\C++\CONSOLEAPPLICATION3\DEBUG\CONSOLEAPPLICATION3.PDB
